MIGRATED UDP STREAM TEST from 0.0.0.0 (0.0.0.0) port 0 AF_INET to 10.10.1.2 () port 0 AF_INET : +/-2.500% @ 99% conf. 
Socket  Message  Elapsed      Messages                
Size    Size     Time         Okay Errors   Throughput
bytes   bytes    secs            #      #   10^6bits/sec

212992      22   10.00     4898433      0      86.21
212992           10.00      994566             17.50

MIGRATED UDP STREAM TEST from 0.0.0.0 (0.0.0.0) port 0 AF_INET to 10.10.1.2 () port 0 AF_INET : +/-2.500% @ 99% conf. 
Socket  Message  Elapsed      Messages                
Size    Size     Time         Okay Errors   Throughput
bytes   bytes    secs            #      #   10^6bits/sec

212992      86   10.00     4792921      0     329.75
212992           10.00      991873             68.24

MIGRATED UDP STREAM TEST from 0.0.0.0 (0.0.0.0) port 0 AF_INET to 10.10.1.2 () port 0 AF_INET : +/-2.500% @ 99% conf. 
Socket  Message  Elapsed      Messages                
Size    Size     Time         Okay Errors   Throughput
bytes   bytes    secs            #      #   10^6bits/sec

212992     214   10.00     4865759      0     833.02
212992           10.00      986641            168.91

MIGRATED UDP STREAM TEST from 0.0.0.0 (0.0.0.0) port 0 AF_INET to 10.10.1.2 () port 0 AF_INET : +/-2.500% @ 99% conf. 
Socket  Message  Elapsed      Messages                
Size    Size     Time         Okay Errors   Throughput
bytes   bytes    secs            #      #   10^6bits/sec

212992     470   10.00     4825504      0    1814.38
212992           10.00      973520            366.04

MIGRATED UDP STREAM TEST from 0.0.0.0 (0.0.0.0) port 0 AF_INET to 10.10.1.2 () port 0 AF_INET : +/-2.500% @ 99% conf. 
Socket  Message  Elapsed      Messages                
Size    Size     Time         Okay Errors   Throughput
bytes   bytes    secs            #      #   10^6bits/sec

212992     982   10.00     4657828      0    3659.18
212992           10.00      948970            745.51

MIGRATED UDP STREAM TEST from 0.0.0.0 (0.0.0.0) port 0 AF_INET to 10.10.1.2 () port 0 AF_INET : +/-2.500% @ 99% conf. 
Socket  Message  Elapsed      Messages                
Size    Size     Time         Okay Errors   Throughput
bytes   bytes    secs            #      #   10^6bits/sec

212992    1472   10.00     4600950      0    5418.06
212992           10.00      929953           1095.11

