MIGRATED UDP REQUEST/RESPONSE TEST from 0.0.0.0 (0.0.0.0) port 0 AF_INET to 10.10.1.2 () port 0 AF_INET : +/-2.500% @ 99% conf.  : first burst 0
Local /Remote
Socket Size   Request  Resp.   Elapsed  Trans.
Send   Recv   Size     Size    Time     Rate         
bytes  Bytes  bytes    bytes   secs.    per sec   

212992 212992 22       22      10.00    11608.90   
212992 212992
MIGRATED UDP REQUEST/RESPONSE TEST from 0.0.0.0 (0.0.0.0) port 0 AF_INET to 10.10.1.2 () port 0 AF_INET : +/-2.500% @ 99% conf.  : first burst 0
Local /Remote
Socket Size   Request  Resp.   Elapsed  Trans.
Send   Recv   Size     Size    Time     Rate         
bytes  Bytes  bytes    bytes   secs.    per sec   

212992 212992 86       22      10.00    11629.04   
212992 212992
MIGRATED UDP REQUEST/RESPONSE TEST from 0.0.0.0 (0.0.0.0) port 0 AF_INET to 10.10.1.2 () port 0 AF_INET : +/-2.500% @ 99% conf.  : first burst 0
Local /Remote
Socket Size   Request  Resp.   Elapsed  Trans.
Send   Recv   Size     Size    Time     Rate         
bytes  Bytes  bytes    bytes   secs.    per sec   

212992 212992 214      22      10.00    11268.63   
212992 212992
MIGRATED UDP REQUEST/RESPONSE TEST from 0.0.0.0 (0.0.0.0) port 0 AF_INET to 10.10.1.2 () port 0 AF_INET : +/-2.500% @ 99% conf.  : first burst 0
Local /Remote
Socket Size   Request  Resp.   Elapsed  Trans.
Send   Recv   Size     Size    Time     Rate         
bytes  Bytes  bytes    bytes   secs.    per sec   

212992 212992 470      22      10.00    11235.26   
212992 212992
MIGRATED UDP REQUEST/RESPONSE TEST from 0.0.0.0 (0.0.0.0) port 0 AF_INET to 10.10.1.2 () port 0 AF_INET : +/-2.500% @ 99% conf.  : first burst 0
Local /Remote
Socket Size   Request  Resp.   Elapsed  Trans.
Send   Recv   Size     Size    Time     Rate         
bytes  Bytes  bytes    bytes   secs.    per sec   

212992 212992 982      22      10.00    10390.82   
212992 212992
MIGRATED UDP REQUEST/RESPONSE TEST from 0.0.0.0 (0.0.0.0) port 0 AF_INET to 10.10.1.2 () port 0 AF_INET : +/-2.500% @ 99% conf.  : first burst 0
Local /Remote
Socket Size   Request  Resp.   Elapsed  Trans.
Send   Recv   Size     Size    Time     Rate         
bytes  Bytes  bytes    bytes   secs.    per sec   

212992 212992 1472     22      10.00    9966.01   
212992 212992
