64 485552 500889 444591 431322 432434
128 491281 478371 424579 420067 416619
256 487892 486976 424754 419009 418516
512 484053 493520 441189 422553 422164
1024 470834 521629 431892 422450 428774
1280 463186 524103 432365 420386 429601
1514 463448 547122 437092 429409 430374
